{
  "page": 1,
  "total_results": 10000,
  "total_pages": 500,
  "results": [
    {
      "original_name": "The Mandalorian",
      "genre_ids": [
        10759,
        10765
      ],
      "name": "The Mandalorian",
      "popularity": 435.129,
      "origin_country": [
        "US"
      ],
      "vote_count": 184,
      "first_air_date": "2019-11-12",
      "backdrop_path": "/o7qi2v4uWQ8bZ1tW3KI0Ztn2epk.jpg",
      "original_language": "en",
      "id": 82856,
      "vote_average": 7.7,
      "overview": "Set after the fall of the Empire and before the emergence of the First Order, we follow the travails of a lone gunfighter in the outer reaches of the galaxy far from the authority of the New Republic.",
      "poster_path": "/BbNvKCuEF4SRzFXR16aK6ISFtR.jpg"
    },
    {
      "original_name": "Rick and Morty",
      "genre_ids": [
        16,
        35,
        10759,
        10765
      ],
      "name": "Rick and Morty",
      "popularity": 297.204,
      "origin_country": [
        "US"
      ],
      "vote_count": 1541,
      "first_air_date": "2013-12-02",
      "backdrop_path": "/mzzHr6g1yvZ05Mc7hNj3tUdy2bM.jpg",
      "original_language": "en",
      "id": 60625,
      "vote_average": 8.6,
      "overview": "Rick is a mentally-unbalanced but scientifically-gifted old man who has recently reconnected with his family. He spends most of his time involving his young grandson Morty in dangerous, outlandish adventures throughout space and alternate universes. Compounded with Morty's already unstable family life, these events cause Morty much distress at home and school.",
      "poster_path": "/qJdfO3ahgAMf2rcmhoqngjBBZW1.jpg"
    },
    {
      "original_name": "Arrow",
      "genre_ids": [
        80,
        18,
        9648,
        10759
      ],
      "name": "Arrow",
      "popularity": 193.153,
      "origin_country": [
        "US"
      ],
      "vote_count": 2877,
      "first_air_date": "2012-10-10",
      "backdrop_path": "/dXTyVDTIgeByvUOUEiHjbi8xX9A.jpg",
      "original_language": "en",
      "id": 1412,
      "vote_average": 5.8,
      "overview": "Spoiled billionaire playboy Oliver Queen is missing and presumed dead when his yacht is lost at sea. He returns five years later a changed man, determined to clean up the city as a hooded vigilante armed with a bow.",
      "poster_path": "/gKG5QGz5Ngf8fgWpBsWtlg5L2SF.jpg"
    },
    {
      "original_name": "The Simpsons",
      "genre_ids": [
        16,
        35
      ],
      "name": "The Simpsons",
      "popularity": 148.179,
      "origin_country": [
        "US"
      ],
      "vote_count": 2260,
      "first_air_date": "1989-12-17",
      "backdrop_path": "/f5uNbUC76oowt5mt5J9QlqrIYQ6.jpg",
      "original_language": "en",
      "id": 456,
      "vote_average": 7.2,
      "overview": "Set in Springfield, the average American town, the show focuses on the antics and everyday adventures of the Simpson family; Homer, Marge, Bart, Lisa and Maggie, as well as a virtual cast of thousands. Since the beginning, the series has been a pop culture icon, attracting hundreds of celebrities to guest star. The show has also made name for itself in its fearless satirical take on politics, media and American life in general.",
      "poster_path": "/yTZQkSsxUFJZJe67IenRM0AEklc.jpg"
    },
    {
      "original_name": "His Dark Materials",
      "genre_ids": [
        18,
        10765
      ],
      "name": "His Dark Materials",
      "popularity": 173.268,
      "origin_country": [
        "GB"
      ],
      "vote_count": 87,
      "first_air_date": "2019-11-03",
      "backdrop_path": "/9yKCJTOh9m3Lol2RY3kw99QPH6x.jpg",
      "original_language": "en",
      "id": 68507,
      "vote_average": 7.9,
      "overview": "Lyra is an orphan who lives in a parallel universe in which science, theology and magic are entwined. Lyra's search for a kidnapped friend uncovers a sinister plot involving stolen children, and turns into a quest to understand a mysterious phenomenon called Dust. She is later joined on her journey by Will, a boy who possesses a knife that can cut windows between worlds. As Lyra learns the truth about her parents and her prophesied destiny, the two young people are caught up in a war against celestial powers that ranges across many worlds.",
      "poster_path": "/xOjRNnQw5hqR1EULJ2iHkGwJVA4.jpg"
    },
    {
      "original_name": "4 Blocks",
      "genre_ids": [
        18
      ],
      "name": "4 Blocks",
      "popularity": 105.99,
      "origin_country": [
        "DE"
      ],
      "vote_count": 50,
      "first_air_date": "2017-05-08",
      "backdrop_path": "/jEdce7g6VZHMoJ7DANX8NFQkVAW.jpg",
      "original_language": "de",
      "id": 71641,
      "vote_average": 4.4,
      "overview": "Based in Neukölln, Berlin Toni manages the daily business of dealing with the Arabic gangs and ends up wanting to leave his old life behind for his family, but as expected, its never that simple.",
      "poster_path": "/jVObyxtNxuPbG5czuKvm7pW56EV.jpg"
    },
    {
      "original_name": "Supernatural",
      "genre_ids": [
        18,
        9648,
        10765
      ],
      "name": "Supernatural",
      "popularity": 147.691,
      "origin_country": [
        "US"
      ],
      "vote_count": 2063,
      "first_air_date": "2005-09-13",
      "backdrop_path": "/o9OKe3M06QMLOzTl3l6GStYtnE9.jpg",
      "original_language": "en",
      "id": 1622,
      "vote_average": 7.4,
      "overview": "When they were boys, Sam and Dean Winchester lost their mother to a mysterious and demonic supernatural force. Subsequently, their father raised them to be soldiers. He taught them about the paranormal evil that lives in the dark corners and on the back roads of America ... and he taught them how to kill it. Now, the Winchester brothers crisscross the country in their '67 Chevy Impala, battling every kind of supernatural threat they encounter along the way. ",
      "poster_path": "/KoYWXbnYuS3b0GyQPkbuexlVK9.jpg"
    },
    {
      "original_name": "The Flash",
      "genre_ids": [
        18,
        10765
      ],
      "name": "The Flash",
      "popularity": 193.148,
      "origin_country": [
        "US"
      ],
      "vote_count": 3035,
      "first_air_date": "2014-10-07",
      "backdrop_path": "/6ZdQTBy20HzWudZthAV7NkZWfIb.jpg",
      "original_language": "en",
      "id": 60735,
      "vote_average": 6.7,
      "overview": "After a particle accelerator causes a freak storm, CSI Investigator Barry Allen is struck by lightning and falls into a coma. Months later he awakens with the power of super speed, granting him the ability to move through Central City like an unseen guardian angel. Though initially excited by his newfound powers, Barry is shocked to discover he is not the only \"meta-human\" who was created in the wake of the accelerator explosion -- and not everyone is using their new powers for good. Barry partners with S.T.A.R. Labs and dedicates his life to protect the innocent. For now, only a few close friends and associates know that Barry is literally the fastest man alive, but it won't be long before the world learns what Barry Allen has become...The Flash.",
      "poster_path": "/wHa6KOJAoNTFLFtp7wguUJKSnju.jpg"
    },
    {
      "original_name": "Vikings",
      "genre_ids": [
        18,
        10759
      ],
      "name": "Vikings",
      "popularity": 157.664,
      "origin_country": [
        "CA"
      ],
      "vote_count": 1769,
      "first_air_date": "2013-03-03",
      "backdrop_path": "/A30ZqEoDbchvE7mCZcSp6TEwB1Q.jpg",
      "original_language": "en",
      "id": 44217,
      "vote_average": 7.5,
      "overview": "Vikings follows the adventures of Ragnar Lothbrok, the greatest hero of his age. The series tells the sagas of Ragnar's band of Viking brothers and his family, as he rises to become King of the Viking tribes. As well as being a fearless warrior, Ragnar embodies the Norse traditions of devotion to the gods. Legend has it that he was a direct descendant of Odin, the god of war and warriors.",
      "poster_path": "/ff1zhqvwfS5HvRNcA5UFrH0PA2q.jpg"
    },
    {
      "original_name": "The Walking Dead",
      "genre_ids": [
        18,
        10759,
        10765
      ],
      "name": "The Walking Dead",
      "popularity": 111.363,
      "origin_country": [
        "US"
      ],
      "vote_count": 4390,
      "first_air_date": "2010-10-31",
      "backdrop_path": "/wXXaPMgrv96NkH8KD1TMdS2d7iq.jpg",
      "original_language": "en",
      "id": 1402,
      "vote_average": 7.3,
      "overview": "Sheriff's deputy Rick Grimes awakens from a coma to find a post-apocalyptic world dominated by flesh-eating zombies. He sets out to find his family and encounters many other survivors along the way.",
      "poster_path": "/reKs8y4mPwPkZG99ZpbKRhBPKsX.jpg"
    },
    {
      "original_name": "Law & Order: Special Victims Unit",
      "genre_ids": [
        80,
        18
      ],
      "name": "Law & Order: Special Victims Unit",
      "popularity": 97.69,
      "origin_country": [
        "US"
      ],
      "vote_count": 738,
      "first_air_date": "1999-09-20",
      "backdrop_path": "/cD9PxbrdWYgL7MUpD9eOYuiSe2P.jpg",
      "original_language": "en",
      "id": 2734,
      "vote_average": 6.5,
      "overview": "In the criminal justice system, sexually-based offenses are considered especially heinous. In New York City, the dedicated detectives who investigate these vicious felonies are members of an elite squad known as the Special Victims Unit. These are their stories.",
      "poster_path": "/6t6r1VGQTTQecN4V0sZeqsmdU9g.jpg"
    },
    {
      "original_name": "South Park",
      "genre_ids": [
        16,
        35
      ],
      "name": "South Park",
      "popularity": 110.412,
      "origin_country": [
        "US"
      ],
      "vote_count": 1202,
      "first_air_date": "1997-08-13",
      "backdrop_path": "/mSDKNVvDfitFE6Fb6fSSl5DQmgS.jpg",
      "original_language": "en",
      "id": 2190,
      "vote_average": 7.8,
      "overview": "Follows the misadventures of four irreverent grade-schoolers in the quiet, dysfunctional town of South Park, Colorado.",
      "poster_path": "/v9zc0cZpy5aPSfAy6Tgb6I1zWgV.jpg"
    },
    {
      "original_name": "Family Guy",
      "genre_ids": [
        16,
        35
      ],
      "name": "Family Guy",
      "popularity": 99.353,
      "origin_country": [
        "US"
      ],
      "vote_count": 1735,
      "first_air_date": "1999-01-31",
      "backdrop_path": "/pH38r4TWTqq7Mcs6XAlwgzNUeJe.jpg",
      "original_language": "en",
      "id": 1434,
      "vote_average": 6.5,
      "overview": "Sick, twisted, politically incorrect and Freakin' Sweet animated series featuring the adventures of the dysfunctional Griffin family. Bumbling Peter and long-suffering Lois have three kids. Stewie (a brilliant but sadistic baby bent on killing his mother and taking over the world), Meg (the oldest, and is the most unpopular girl in town) and Chris (the middle kid, he's not very bright but has a passion for movies). The final member of the family is Brian - a talking dog and much more than a pet, he keeps Stewie in check whilst sipping Martinis and sorting through his own life issues.",
      "poster_path": "/gBGUL1UTUNmdRQT8gA1LUV4yg39.jpg"
    },
    {
      "original_name": "The Blacklist",
      "genre_ids": [
        80,
        18,
        9648
      ],
      "name": "The Blacklist",
      "popularity": 89.938,
      "origin_country": [
        "US"
      ],
      "vote_count": 1116,
      "first_air_date": "2013-09-23",
      "backdrop_path": "/fHwiAqIKragaCbNJo9Qs4lrccIN.jpg",
      "original_language": "en",
      "id": 46952,
      "vote_average": 7,
      "overview": "Raymond \"Red\" Reddington, one of the FBI's most wanted fugitives, surrenders in person at FBI Headquarters in Washington, D.C. He claims that he and the FBI have the same interests: bringing down dangerous criminals and terrorists. In the last two decades, he's made a list of criminals and terrorists that matter the most but the FBI cannot find because it does not know they exist. Reddington calls this \"The Blacklist\". Reddington will co-operate, but insists that he will speak only to Elizabeth Keen, a rookie FBI profiler.",
      "poster_path": "/bgbQCW4fE9b6wSOSC6Fb4FfVzsW.jpg"
    },
    {
      "original_name": "Grey's Anatomy",
      "genre_ids": [
        18
      ],
      "name": "Grey's Anatomy",
      "popularity": 99.9,
      "origin_country": [
        "US"
      ],
      "vote_count": 1133,
      "first_air_date": "2005-03-27",
      "backdrop_path": "/edmk8xjGBsYVIf4QtLY9WMaMcXZ.jpg",
      "original_language": "en",
      "id": 1416,
      "vote_average": 6.4,
      "overview": "Follows the personal and professional lives of a group of doctors at Seattle’s Grey Sloan Memorial Hospital.",
      "poster_path": "/jnsvc7gCKocXnrTXF6p03cICTWb.jpg"
    },
    {
      "original_name": "Gotham",
      "genre_ids": [
        80,
        18,
        14
      ],
      "name": "Gotham",
      "popularity": 73.487,
      "origin_country": [
        "US"
      ],
      "vote_count": 1216,
      "first_air_date": "2014-09-22",
      "backdrop_path": "/mKBP1OCgCG0jw8DwVYlnYqVILtc.jpg",
      "original_language": "en",
      "id": 60708,
      "vote_average": 6.9,
      "overview": "Before there was Batman, there was GOTHAM. \n\nEveryone knows the name Commissioner Gordon. He is one of the crime world's greatest foes, a man whose reputation is synonymous with law and order. But what is known of Gordon's story and his rise from rookie detective to Police Commissioner? What did it take to navigate the multiple layers of corruption that secretly ruled Gotham City, the spawning ground of the world's most iconic villains? And what circumstances created them – the larger-than-life personas who would become Catwoman, The Penguin, The Riddler, Two-Face and The Joker? ",
      "poster_path": "/4XddcRDtnNjYmLRMYpbrhFxsbuq.jpg"
    },
    {
      "original_name": "Supergirl",
      "genre_ids": [
        28,
        12,
        18,
        878
      ],
      "name": "Supergirl",
      "popularity": 91.308,
      "origin_country": [
        "US"
      ],
      "vote_count": 1103,
      "first_air_date": "2015-10-26",
      "backdrop_path": "/3x1lVyxtsLKsZyR2E3qRe1EAXG4.jpg",
      "original_language": "en",
      "id": 62688,
      "vote_average": 6,
      "overview": "Twenty-four-year-old Kara Zor-El, who was taken in by the Danvers family when she was 13 after being sent away from Krypton, must learn to embrace her powers after previously hiding them. The Danvers teach her to be careful with her powers, until she has to reveal them during an unexpected disaster, setting her on her journey of heroism.",
      "poster_path": "/4ka8vAzAFUZFKxWyfGfwVcSXuZo.jpg"
    },
    {
      "original_name": "Marvel's Agents of S.H.I.E.L.D.",
      "genre_ids": [
        18,
        10759,
        10765
      ],
      "name": "Marvel's Agents of S.H.I.E.L.D.",
      "popularity": 78.92,
      "origin_country": [
        "US"
      ],
      "vote_count": 1405,
      "first_air_date": "2013-09-24",
      "backdrop_path": "/iWopHyAvuIDjGX10Yc3nn6UEebW.jpg",
      "original_language": "en",
      "id": 1403,
      "vote_average": 6.8,
      "overview": "Agent Phil Coulson of S.H.I.E.L.D. (Strategic Homeland Intervention, Enforcement and Logistics Division) puts together a team of agents to investigate the new, the strange and the unknown around the globe, protecting the ordinary from the extraordinary.",
      "poster_path": "/cXiETfFK1BTLest5fhTLfDLRdL6.jpg"
    },
    {
      "original_name": "Doctor Who",
      "genre_ids": [
        18,
        10759,
        10765
      ],
      "name": "Doctor Who",
      "popularity": 77.392,
      "origin_country": [
        "GB"
      ],
      "vote_count": 1514,
      "first_air_date": "2005-03-26",
      "backdrop_path": "/mQ9yeCuofNatSyErUKAPD1uOq8Q.jpg",
      "original_language": "en",
      "id": 57243,
      "vote_average": 7,
      "overview": "The Doctor is a Time Lord: a 900 year old alien with 2 hearts, part of a gifted civilization who mastered time travel. The Doctor saves planets for a living—more of a hobby actually, and the Doctor's very, very good at it.",
      "poster_path": "/3psF5STWO7n9NoXYul27TU8g2GA.jpg"
    },
    {
      "original_name": "See",
      "genre_ids": [
        18,
        10759,
        10765
      ],
      "name": "See",
      "popularity": 73.171,
      "origin_country": [
        "US"
      ],
      "vote_count": 100,
      "first_air_date": "2019-11-01",
      "backdrop_path": "/b2ZxtdXcpyI1LhVdiABbJOz2Yph.jpg",
      "original_language": "en",
      "id": 80752,
      "vote_average": 7.8,
      "overview": "A virus has decimated humankind. Those who survived emerged blind. Centuries later when twins are born with the mythic ability to see, their father must protect his tribe against a threatened queen.",
      "poster_path": "/g3JsScc7mQCfc3e5e5rXwu7xVVP.jpg"
    }
  ]
}